<svg xmlns="http://www.w3.org/2000/svg" width="24" height="24" viewBox="0 0 24 24">
    <g fill="none" fill-rule="evenodd">
        <rect width="24" height="24" fill="#FFF" rx="7"/>
        <path stroke="#FF7373" stroke-linecap="round" stroke-linejoin="round" stroke-width="1.6" d="M7 12h10m-4.2-4l4.2 4-4.2 4"/>
    </g>
</svg>
