<svg xmlns="http://www.w3.org/2000/svg" width="24" height="24" viewBox="0 0 24 24">
    <g fill="none" fill-rule="evenodd">
        <path d="M0 0h24v24H0z"/>
        <path stroke="#FF7373" stroke-linecap="round" stroke-linejoin="round" stroke-width="2" d="M12 16a4 4 0 0 1-4-4v-2a4 4 0 0 1 8 0v2a4 4 0 0 1-4 4zm6.102 5.154C17.002 19.86 15.332 19 13.5 19h-3a5.99 5.99 0 0 0-4.6 2.147M12 23c6.075 0 11-4.925 11-11S18.075 1 12 1 1 5.925 1 12s4.925 11 11 11z"/>
    </g>
</svg>
